…
``` r
ggsave(file.path('output', 'vl_results_image.png'))
```

    ## Saving 7 x 5 in image

``` r
results
```

    ## # A tibble: 27 × 8
    ##    term      estimate std.error robust.se statistic   p.value conf.low conf.high
    ##    <chr>        <dbl>     <dbl>     <dbl>     <dbl>     <dbl>    <dbl>     <dbl>
    ##  1 relcd4       0.989  0.000778  0.000902   -12.2    2.21e-34    0.987     0.991
    ##  2 genderfe…    0.694  0.0482    0.0494      -7.40   1.37e-13    0.630     0.764
    ##  3 ethnicas…   NA      0         0           NA     NA          NA        NA    
    ##  4 ethnicaf…    0.811  0.0644    0.0732      -2.86   4.18e- 3    0.703     0.936
    ##  5 ethnicot…    0.833  0.0384    0.0533      -3.42   6.23e- 4    0.751     0.925
    ##  6 nrti_reg…    1.03   0.0561    0.0740       0.351  7.26e- 1    0.888     1.19 
    ##  7 nrti_reg…    0.200  1.01      0.186       -8.64   5.80e-18    0.139     0.288
    ##  8 nrti_reg…    3.98   0.581     0.711        1.94   5.24e- 2    0.986    16.0  
    ##  9 pi_regim…    0.900  0.0840    0.116       -0.903  3.67e- 1    0.717     1.13 
    ## 10 pi_regim…    2.02   0.0767    0.116        6.05   1.46e- 9    1.61      2.53 
    ## # ℹ 17 more rows
…
``` r
ggsave(file.path('output', 'cd4_results_image.png'))
```

    ## Saving 7 x 5 in image

``` r
results
```

    ## # A tibble: 27 × 8
    ##    term       estimate std.error robust.se statistic  p.value conf.low conf.high
    ##    <chr>         <dbl>     <dbl>     <dbl>     <dbl>    <dbl>    <dbl>     <dbl>
    ##  1 vl            1.00    1.39e-6   1.84e-6     8.25  1.52e-16    1.00      1.00 
    ##  2 genderfem…    1.02    6.06e-2   5.66e-2     0.366 7.14e- 1    0.914     1.14 
    ##  3 ethnicasi…    1.03    1.88e-1   2.33e-1     0.137 8.91e- 1    0.653     1.63 
    ##  4 ethnicafro    0.572   8.59e-2   9.00e-2    -6.20  5.64e-10    0.480     0.683
    ##  5 ethnicoth…    1.09    6.53e-2   8.06e-2     1.04  3.00e- 1    0.928     1.27 
    ##  6 nrti_regi…    0.727   6.47e-2   6.58e-2    -4.85  1.22e- 6    0.639     0.827
    ##  7 nrti_regi…    0.913   1.22e-1   9.34e-2    -0.972 3.31e- 1    0.760     1.10 
    ##  8 nrti_regi…    1.07    1.61e-1   1.53e-1     0.417 6.77e- 1    0.789     1.44 
    ##  9 pi_regime…    0.493   1.00e-1   9.45e-2    -7.47  7.80e-14    0.410     0.594
    ## 10 pi_regime…    1.12    1.10e-1   1.05e-1     1.09  2.75e- 1    0.913     1.38 
    ## # ℹ 17 more rows
…
